#Command: "C:\Program Files (x86)\Common Files\Intel\Intel Software Manager\intelremotemonserver.exe"
^C:\USERS\XGIOVIO\DESKTOP\HUFFMAN\HUFFMAN\HUFFMAN.CPP
#Command: "C:\Program Files (x86)\Common Files\Intel\Intel Software Manager\intelremotemonserver.exe"
^C:\USERS\XGIOVIO\DESKTOP\HUFFMAN\HUFFMAN\HUFFMAN.CPP
