^C:\USERS\XGIOVIO\DESKTOP\HUFFMAN\HUFFMAN\RELEASE\DATASET.OBJ|C:\USERS\XGIOVIO\DESKTOP\HUFFMAN\HUFFMAN\RELEASE\HUFFMAN.OBJ
C:\USERS\XGIOVIO\DESKTOP\HUFFMAN\RELEASE\HUFFMAN.EXE
C:\USERS\XGIOVIO\DESKTOP\HUFFMAN\HUFFMAN\RELEASE\HUFFMAN.EXE.INTERMEDIATE.MANIFEST
^C:\USERS\XGIOVIO\DESKTOP\HUFFMAN\HUFFMAN\RELEASE\DATASET.OBJ|C:\USERS\XGIOVIO\DESKTOP\HUFFMAN\HUFFMAN\RELEASE\HELEMENT.OBJ|C:\USERS\XGIOVIO\DESKTOP\HUFFMAN\HUFFMAN\RELEASE\HUFFMAN.OBJ
C:\USERS\XGIOVIO\DESKTOP\HUFFMAN\RELEASE\HUFFMAN.EXE
C:\USERS\XGIOVIO\DESKTOP\HUFFMAN\HUFFMAN\RELEASE\HUFFMAN.EXE.INTERMEDIATE.MANIFEST
^C:\USERS\XGIOVIO\DESKTOP\HUFFMAN\HUFFMAN\RELEASE\DATASET.OBJ|C:\USERS\XGIOVIO\DESKTOP\HUFFMAN\HUFFMAN\RELEASE\EXEC.OBJ|C:\USERS\XGIOVIO\DESKTOP\HUFFMAN\HUFFMAN\RELEASE\HELEMENT.OBJ|C:\USERS\XGIOVIO\DESKTOP\HUFFMAN\HUFFMAN\RELEASE\HUFFMAN.OBJ
C:\USERS\XGIOVIO\DESKTOP\HUFFMAN\RELEASE\HUFFMAN.EXE
C:\USERS\XGIOVIO\DESKTOP\HUFFMAN\HUFFMAN\RELEASE\HUFFMAN.EXE.INTERMEDIATE.MANIFEST
^C:\USERS\XGIOVIO\DESKTOP\HUFFMAN\HUFFMAN\RELEASE\DATACHARSTRING.OBJ|C:\USERS\XGIOVIO\DESKTOP\HUFFMAN\HUFFMAN\RELEASE\DATASET.OBJ|C:\USERS\XGIOVIO\DESKTOP\HUFFMAN\HUFFMAN\RELEASE\EXEC.OBJ|C:\USERS\XGIOVIO\DESKTOP\HUFFMAN\HUFFMAN\RELEASE\HELEMENT.OBJ|C:\USERS\XGIOVIO\DESKTOP\HUFFMAN\HUFFMAN\RELEASE\HUFFMAN.OBJ
C:\USERS\XGIOVIO\DESKTOP\HUFFMAN\RELEASE\HUFFMAN.EXE
C:\USERS\XGIOVIO\DESKTOP\HUFFMAN\HUFFMAN\RELEASE\HUFFMAN.EXE.INTERMEDIATE.MANIFEST
